…
```
## 
## FALSE  TRUE 
##    95     4
```

```r
  uncontested <- a12[a12$dem == 0 | a12$rep == 0,]
  uncontested
```

```
## # A tibble: 22 x 7
##      asm   dem  dem2   rep  rep2 voting.age     n
##    <int> <int> <int> <int> <int>      <int> <int>
##  1     7 16664  2499     0     0      44756    36
##  2     8  7869     0     0     0      36986    27
##  3     9 14635     0     0     0      39653    32
##  4    10 20038     0     0     0      41493    38
##  5    12 16193     0     0     0      40095    26
##  6    16 16881     0     0     0      41985    31
##  7    18 16276     0     0     0      40368    33
##  8    19 24856     0     0     0      53394    29
##  9    22     0     0 24006     0      43741    42
## 10    40     0     0 21127     0      45049   104
## # ... with 12 more rows
```
…
